…
    ## Calculating cluster 13

    ## Calculating cluster 14

    ## Calculating cluster 15

    ## Calculating cluster 16

``` r
data.markers %>%
    group_by(cluster) %>%
    slice_max(n = 2, order_by = avg_log2FC)
```

    ## # A tibble: 34 × 7
    ## # Groups:   cluster [17]
    ##        p_val avg_log2FC pct.1 pct.2 p_val_adj cluster gene    
    ##        <dbl>      <dbl> <dbl> <dbl>     <dbl> <fct>   <chr>   
    ##  1 0              1.80  0.944 0.248 0         0       NEUROD6 
    ##  2 0              1.75  0.983 0.703 0         0       PRDX1   
    ##  3 9.98e-184      0.974 0.935 0.984 2.22e-179 1       MT-ND1  
    ##  4 4.84e- 26      0.960 0.413 0.339 1.08e- 21 1       NEUROD6 
    ##  5 0              2.82  0.821 0.163 0         2       SIX3    
    ##  6 0              2.27  0.991 0.604 0         2       MEIS2   
    ##  7 0              2.06  0.999 0.497 0         3       DLX6-AS1
    ##  8 0              1.96  0.831 0.297 0         3       NR2F2   
    ##  9 0              2.22  0.971 0.292 0         4       SOX5    
    ## 10 0              1.95  0.825 0.32  0         4       LMO3    
    ## # … with 24 more rows
    ## # ℹ Use `print(n = ...)` to see more rows
…
